Tan's Advent of Code: Solutions for AOC 2020
…
  df_codes
}

jmpnop_list <- df_codes$instruction_id[df_codes$instruction %in% c("jmp","nop")]

df_codelist <- map(jmpnop_list,jmpnop_switcher,df_codes)

x <- future_map_dfr(df_codelist,run_accumulator)

x %>% arrange(desc(status))

# A tibble: 298 x 3
   status  accumulator next_id
   <chr>         <dbl>   <int>
 1 SUCCESS        1036     626
 2 FAIL           1818     448
 3 FAIL           1797     606
 4 FAIL           1797     606
 5 FAIL           1797     606
 6 FAIL           1797     606
 7 FAIL           1797     606
 8 FAIL           1797     606
 9 FAIL            726     606
10 FAIL            682     606
# ... with 288 more rows
…
stars

# A tibble: 735 x 8
   user_name       total_stars aoc_score day   star1_ts           
   <chr>                 <int>     <int> <chr> <dttm>             
 1 trang1618                50      5442 25    2020-12-25 01:00:32
 2 Farhan Reynaldo          50      5466 25    2020-12-25 04:48:36
 3 @_TanHo                  50      6040 25    2020-12-25 08:29:27
 4 @_mnar99                 44      4767 25    2020-12-25 15:55:09
 5 Colin Rundel             50      5953 25    2020-12-25 04:45:26
 6 @ClareHorscroft          50      6130 25    2020-12-25 04:14:47
 7 David Robinson           47      5548 25    2020-12-27 13:37:13
 8 Nathan Moore             50      5691 25    2020-12-26 06:13:33
 9 Tom Jemmett              50      5770 25    2020-12-30 16:41:27
10 Darrin Speegle           50      5839 25    2020-12-25 00:24:22
# ... with 725 more rows, and 3 more variables: star2_ts <dttm>,
#   user_id <chr>, time_to_star2 <drtn>

leaderboard <- stars %>% 
  group_by(user_name,user_id,aoc_score,total_stars) %>% 
  summarise(
    median_star2 = median(time_to_star2,na.rm = TRUE) %>% `units<-`("mins") %>%  round(1),
    mean_star2 = mean(time_to_star2,na.rm = TRUE) %>% `units<-`("mins") %>% round(1)) %>% 
  ungroup() %>% 
  arrange(desc(total_stars),median_star2)

leaderboard

# A tibble: 54 x 6
   user_name     user_id aoc_score total_stars median_star2 mean_star2
   <chr>         <chr>       <int>       <int> <drtn>       <drtn>    
 1 Colin Rundel  433087       5953          50  17.6 mins    89.0 mins
 2 Tom Jemmett   190599       5770          50  20.7 mins   219.8 mins
 3 Darrin Speeg~ 387786       5839          50  25.8 mins   320.7 mins
 4 Ildik Czell~ 267475       5926          50  28.7 mins   412.5 mins
 5 pritikadasgu~ 1020187      5818          50  31.0 mins    96.1 mins
 6 Jaroslaw Nir~ 443063       6057          50  33.1 mins   447.1 mins
 7 Emil Hvitfel~ 433239       5922          50  34.5 mins   913.2 mins
 8 @ClareHorscr~ 1037870      6130          50  35.2 mins   594.9 mins
 9 @_TanHo       1032765      6040          50  86.0 mins   233.8 mins
10 Nerwosolek    1047933      5657          50 151.9 mins   653.2 mins
# ... with 44 more rows
…
